[1.671s] DEBUG:colcon:Command line arguments: ['/usr/bin/colcon', 'build']
[1.671s] DEBUG:colcon:Parsed command line arguments: Namespace(log_base=None, log_level=None, verb_name='build', build_base='build', install_base='install', merge_install=False, symlink_install=False, test_result_base=None, continue_on_error=False, executor='parallel', parallel_workers=8, event_handlers=None, ignore_user_meta=False, metas=['./colcon.meta'], base_paths=['.'], packages_ignore=None, packages_ignore_regex=None, paths=None, packages_up_to=None, packages_up_to_regex=None, packages_above=None, packages_above_and_dependencies=None, packages_above_depth=None, packages_select_by_dep=None, packages_skip_by_dep=None, packages_skip_up_to=None, packages_select_build_failed=False, packages_skip_build_finished=False, packages_select_test_failures=False, packages_skip_test_passed=False, packages_select=None, packages_skip=None, packages_select_regex=None, packages_skip_regex=None, packages_start=None, packages_end=None, allow_overriding=[], cmake_args=None, cmake_target=None, cmake_target_skip_unavailable=False, cmake_clean_cache=False, cmake_clean_first=False, cmake_force_configure=False, ament_cmake_args=None, catkin_cmake_args=None, catkin_skip_building_tests=False, verb_parser=<colcon_defaults.argument_parser.defaults.DefaultArgumentsDecorator object at 0x7fcdacc91b40>, verb_extension=<colcon_core.verb.build.BuildVerb object at 0x7fcdacc90130>, main=<bound method BuildVerb.main of <colcon_core.verb.build.BuildVerb object at 0x7fcdacc90130>>)
[1.743s] Level 1:colcon.colcon_core.package_discovery:discover_packages(colcon_meta) check parameters
[1.744s] Level 1:colcon.colcon_core.package_discovery:discover_packages(recursive) check parameters
[1.744s] Level 1:colcon.colcon_core.package_discovery:discover_packages(ignore) check parameters
[1.744s] Level 1:colcon.colcon_core.package_discovery:discover_packages(path) check parameters
[1.744s] Level 1:colcon.colcon_core.package_discovery:discover_packages(colcon_meta) discover
[1.744s] Level 1:colcon.colcon_core.package_discovery:discover_packages(recursive) discover
[1.744s] INFO:colcon.colcon_core.package_discovery:Crawling recursively for packages in '/home/umrob/M2/ros-2-planar-robot-p4'
[1.745s] Level 1:colcon.colcon_core.package_identification:_identify(.) by extensions ['ignore', 'ignore_ament_install']
[1.745s] Level 1:colcon.colcon_core.package_identification:_identify(.) by extension 'ignore'
[1.745s] Level 1:colcon.colcon_core.package_identification:_identify(.) by extension 'ignore_ament_install'
[1.745s] Level 1:colcon.colcon_core.package_identification:_identify(.) by extensions ['colcon_pkg']
[1.745s] Level 1:colcon.colcon_core.package_identification:_identify(.) by extension 'colcon_pkg'
[1.745s] Level 1:colcon.colcon_core.package_identification:_identify(.) by extensions ['colcon_meta']
[1.745s] Level 1:colcon.colcon_core.package_identification:_identify(.) by extension 'colcon_meta'
[1.746s] Level 1:colcon.colcon_core.package_identification:_identify(.) by extensions ['ros']
[1.746s] Level 1:colcon.colcon_core.package_identification:_identify(.) by extension 'ros'
[1.765s] DEBUG:colcon.colcon_core.package_identification:Package '.' with type 'ros.ament_cmake' and name 'ros2_planar_robot'
[1.765s] Level 1:colcon.colcon_core.package_discovery:discover_packages(recursive) using defaults
[1.765s] Level 1:colcon.colcon_core.package_discovery:discover_packages(ignore) discover
[1.765s] Level 1:colcon.colcon_core.package_discovery:discover_packages(ignore) using defaults
[1.765s] Level 1:colcon.colcon_core.package_discovery:discover_packages(path) discover
[1.765s] Level 1:colcon.colcon_core.package_discovery:discover_packages(path) using defaults
[1.908s] Level 1:colcon.colcon_core.package_discovery:discover_packages(prefix_path) check parameters
[1.909s] Level 1:colcon.colcon_core.package_discovery:discover_packages(prefix_path) discover
[1.960s] DEBUG:colcon.colcon_installed_package_information.package_discovery:Found 274 installed packages in /opt/ros/humble
[1.973s] Level 1:colcon.colcon_core.package_discovery:discover_packages(prefix_path) using defaults
[2.111s] Level 5:colcon.colcon_core.verb:set package 'ros2_planar_robot' build argument 'cmake_args' from command line to 'None'
[2.111s] Level 5:colcon.colcon_core.verb:set package 'ros2_planar_robot' build argument 'cmake_target' from command line to 'None'
[2.111s] Level 5:colcon.colcon_core.verb:set package 'ros2_planar_robot' build argument 'cmake_target_skip_unavailable' from command line to 'False'
[2.112s] Level 5:colcon.colcon_core.verb:set package 'ros2_planar_robot' build argument 'cmake_clean_cache' from command line to 'False'
[2.112s] Level 5:colcon.colcon_core.verb:set package 'ros2_planar_robot' build argument 'cmake_clean_first' from command line to 'False'
[2.112s] Level 5:colcon.colcon_core.verb:set package 'ros2_planar_robot' build argument 'cmake_force_configure' from command line to 'False'
[2.112s] Level 5:colcon.colcon_core.verb:set package 'ros2_planar_robot' build argument 'ament_cmake_args' from command line to 'None'
[2.112s] Level 5:colcon.colcon_core.verb:set package 'ros2_planar_robot' build argument 'catkin_cmake_args' from command line to 'None'
[2.112s] Level 5:colcon.colcon_core.verb:set package 'ros2_planar_robot' build argument 'catkin_skip_building_tests' from command line to 'False'
[2.112s] DEBUG:colcon.colcon_core.verb:Building package 'ros2_planar_robot' with the following arguments: {'ament_cmake_args': None, 'build_base': '/home/umrob/M2/ros-2-planar-robot-p4/build/ros2_planar_robot', 'catkin_cmake_args': None, 'catkin_skip_building_tests': False, 'cmake_args': None, 'cmake_clean_cache': False, 'cmake_clean_first': False, 'cmake_force_configure': False, 'cmake_target': None, 'cmake_target_skip_unavailable': False, 'install_base': '/home/umrob/M2/ros-2-planar-robot-p4/install/ros2_planar_robot', 'merge_install': False, 'path': '/home/umrob/M2/ros-2-planar-robot-p4', 'symlink_install': False, 'test_result_base': None}
[2.135s] INFO:colcon.colcon_core.executor:Executing jobs using 'parallel' executor
[2.162s] DEBUG:colcon.colcon_parallel_executor.executor.parallel:run_until_complete
[2.162s] INFO:colcon.colcon_ros.task.ament_cmake.build:Building ROS package in '/home/umrob/M2/ros-2-planar-robot-p4' with build type 'ament_cmake'
[2.163s] INFO:colcon.colcon_cmake.task.cmake.build:Building CMake package in '/home/umrob/M2/ros-2-planar-robot-p4'
[2.188s] INFO:colcon.colcon_core.plugin_system:Skipping extension 'colcon_core.shell.bat': Not used on non-Windows systems
[2.189s] INFO:colcon.colcon_core.shell:Skip shell extension 'powershell' for command environment: Not usable outside of PowerShell
[2.189s] DEBUG:colcon.colcon_core.shell:Skip shell extension 'dsv' for command environment
[2.246s] DEBUG:colcon.colcon_core.event_handler.log_command:Invoking command in '/home/umrob/M2/ros-2-planar-robot-p4/build/ros2_planar_robot': CMAKE_PREFIX_PATH=/opt/ros/humble CONDA_PROMPT_MODIFIER=(base) /usr/bin/cmake --build /home/umrob/M2/ros-2-planar-robot-p4/build/ros2_planar_robot -- -j8 -l8
[2.866s] DEBUG:colcon.colcon_core.event_handler.log_command:Invoked command in '/home/umrob/M2/ros-2-planar-robot-p4/build/ros2_planar_robot' returned '0': CMAKE_PREFIX_PATH=/opt/ros/humble CONDA_PROMPT_MODIFIER=(base) /usr/bin/cmake --build /home/umrob/M2/ros-2-planar-robot-p4/build/ros2_planar_robot -- -j8 -l8
[3.069s] DEBUG:colcon.colcon_core.event_handler.log_command:Invoking command in '/home/umrob/M2/ros-2-planar-robot-p4/build/ros2_planar_robot': CMAKE_PREFIX_PATH=/opt/ros/humble CONDA_PROMPT_MODIFIER=(base) /usr/bin/cmake --install /home/umrob/M2/ros-2-planar-robot-p4/build/ros2_planar_robot
[3.149s] Level 1:colcon.colcon_core.environment:create_environment_scripts_only(ros2_planar_robot)
[3.150s] DEBUG:colcon.colcon_core.event_handler.log_command:Invoked command in '/home/umrob/M2/ros-2-planar-robot-p4/build/ros2_planar_robot' returned '0': CMAKE_PREFIX_PATH=/opt/ros/humble CONDA_PROMPT_MODIFIER=(base) /usr/bin/cmake --install /home/umrob/M2/ros-2-planar-robot-p4/build/ros2_planar_robot
[3.179s] Level 1:colcon.colcon_core.environment:checking '/home/umrob/M2/ros-2-planar-robot-p4/install/ros2_planar_robot' for CMake module files
[3.180s] Level 1:colcon.colcon_core.environment:checking '/home/umrob/M2/ros-2-planar-robot-p4/install/ros2_planar_robot' for CMake config files
[3.180s] Level 1:colcon.colcon_core.shell:create_environment_hook('ros2_planar_robot', 'cmake_prefix_path')
[3.208s] INFO:colcon.colcon_core.shell:Creating environment hook '/home/umrob/M2/ros-2-planar-robot-p4/install/ros2_planar_robot/share/ros2_planar_robot/hook/cmake_prefix_path.ps1'
[3.210s] INFO:colcon.colcon_core.shell:Creating environment descriptor '/home/umrob/M2/ros-2-planar-robot-p4/install/ros2_planar_robot/share/ros2_planar_robot/hook/cmake_prefix_path.dsv'
[3.210s] INFO:colcon.colcon_core.shell:Creating environment hook '/home/umrob/M2/ros-2-planar-robot-p4/install/ros2_planar_robot/share/ros2_planar_robot/hook/cmake_prefix_path.sh'
[3.212s] Level 1:colcon.colcon_core.environment:checking '/home/umrob/M2/ros-2-planar-robot-p4/install/ros2_planar_robot/lib'
[3.213s] Level 1:colcon.colcon_core.shell:create_environment_hook('ros2_planar_robot', 'ld_library_path_lib')
[3.239s] INFO:colcon.colcon_core.shell:Creating environment hook '/home/umrob/M2/ros-2-planar-robot-p4/install/ros2_planar_robot/share/ros2_planar_robot/hook/ld_library_path_lib.ps1'
[3.239s] INFO:colcon.colcon_core.shell:Creating environment descriptor '/home/umrob/M2/ros-2-planar-robot-p4/install/ros2_planar_robot/share/ros2_planar_robot/hook/ld_library_path_lib.dsv'
[3.240s] INFO:colcon.colcon_core.shell:Creating environment hook '/home/umrob/M2/ros-2-planar-robot-p4/install/ros2_planar_robot/share/ros2_planar_robot/hook/ld_library_path_lib.sh'
[3.240s] Level 1:colcon.colcon_core.environment:checking '/home/umrob/M2/ros-2-planar-robot-p4/install/ros2_planar_robot/bin'
[3.240s] Level 1:colcon.colcon_core.environment:checking '/home/umrob/M2/ros-2-planar-robot-p4/install/ros2_planar_robot/lib/pkgconfig/ros2_planar_robot.pc'
[3.240s] Level 1:colcon.colcon_core.environment:checking '/home/umrob/M2/ros-2-planar-robot-p4/install/ros2_planar_robot/lib/python3.10/site-packages'
[3.241s] Level 1:colcon.colcon_core.environment:checking '/home/umrob/M2/ros-2-planar-robot-p4/install/ros2_planar_robot/bin'
[3.267s] INFO:colcon.colcon_core.shell:Creating package script '/home/umrob/M2/ros-2-planar-robot-p4/install/ros2_planar_robot/share/ros2_planar_robot/package.ps1'
[3.268s] INFO:colcon.colcon_core.shell:Creating package descriptor '/home/umrob/M2/ros-2-planar-robot-p4/install/ros2_planar_robot/share/ros2_planar_robot/package.dsv'
[3.269s] INFO:colcon.colcon_core.shell:Creating package script '/home/umrob/M2/ros-2-planar-robot-p4/install/ros2_planar_robot/share/ros2_planar_robot/package.sh'
[3.270s] INFO:colcon.colcon_core.shell:Creating package script '/home/umrob/M2/ros-2-planar-robot-p4/install/ros2_planar_robot/share/ros2_planar_robot/package.bash'
[3.271s] INFO:colcon.colcon_core.shell:Creating package script '/home/umrob/M2/ros-2-planar-robot-p4/install/ros2_planar_robot/share/ros2_planar_robot/package.zsh'
[3.272s] Level 1:colcon.colcon_core.environment:create_file_with_runtime_dependencies(/home/umrob/M2/ros-2-planar-robot-p4/install/ros2_planar_robot/share/colcon-core/packages/ros2_planar_robot)
[3.493s] Level 1:colcon.colcon_core.environment:create_environment_scripts_only(ros2_planar_robot)
[3.518s] Level 1:colcon.colcon_core.environment:checking '/home/umrob/M2/ros-2-planar-robot-p4/install/ros2_planar_robot' for CMake module files
[3.519s] Level 1:colcon.colcon_core.environment:checking '/home/umrob/M2/ros-2-planar-robot-p4/install/ros2_planar_robot' for CMake config files
[3.519s] Level 1:colcon.colcon_core.shell:create_environment_hook('ros2_planar_robot', 'cmake_prefix_path')
[3.544s] INFO:colcon.colcon_core.shell:Creating environment hook '/home/umrob/M2/ros-2-planar-robot-p4/install/ros2_planar_robot/share/ros2_planar_robot/hook/cmake_prefix_path.ps1'
[3.545s] INFO:colcon.colcon_core.shell:Creating environment descriptor '/home/umrob/M2/ros-2-planar-robot-p4/install/ros2_planar_robot/share/ros2_planar_robot/hook/cmake_prefix_path.dsv'
[3.546s] INFO:colcon.colcon_core.shell:Creating environment hook '/home/umrob/M2/ros-2-planar-robot-p4/install/ros2_planar_robot/share/ros2_planar_robot/hook/cmake_prefix_path.sh'
[3.546s] Level 1:colcon.colcon_core.environment:checking '/home/umrob/M2/ros-2-planar-robot-p4/install/ros2_planar_robot/lib'
[3.546s] Level 1:colcon.colcon_core.shell:create_environment_hook('ros2_planar_robot', 'ld_library_path_lib')
[3.573s] INFO:colcon.colcon_core.shell:Creating environment hook '/home/umrob/M2/ros-2-planar-robot-p4/install/ros2_planar_robot/share/ros2_planar_robot/hook/ld_library_path_lib.ps1'
[3.573s] INFO:colcon.colcon_core.shell:Creating environment descriptor '/home/umrob/M2/ros-2-planar-robot-p4/install/ros2_planar_robot/share/ros2_planar_robot/hook/ld_library_path_lib.dsv'
[3.574s] INFO:colcon.colcon_core.shell:Creating environment hook '/home/umrob/M2/ros-2-planar-robot-p4/install/ros2_planar_robot/share/ros2_planar_robot/hook/ld_library_path_lib.sh'
[3.574s] Level 1:colcon.colcon_core.environment:checking '/home/umrob/M2/ros-2-planar-robot-p4/install/ros2_planar_robot/bin'
[3.574s] Level 1:colcon.colcon_core.environment:checking '/home/umrob/M2/ros-2-planar-robot-p4/install/ros2_planar_robot/lib/pkgconfig/ros2_planar_robot.pc'
[3.574s] Level 1:colcon.colcon_core.environment:checking '/home/umrob/M2/ros-2-planar-robot-p4/install/ros2_planar_robot/lib/python3.10/site-packages'
[3.575s] Level 1:colcon.colcon_core.environment:checking '/home/umrob/M2/ros-2-planar-robot-p4/install/ros2_planar_robot/bin'
[3.600s] INFO:colcon.colcon_core.shell:Creating package script '/home/umrob/M2/ros-2-planar-robot-p4/install/ros2_planar_robot/share/ros2_planar_robot/package.ps1'
[3.601s] INFO:colcon.colcon_core.shell:Creating package descriptor '/home/umrob/M2/ros-2-planar-robot-p4/install/ros2_planar_robot/share/ros2_planar_robot/package.dsv'
[3.601s] INFO:colcon.colcon_core.shell:Creating package script '/home/umrob/M2/ros-2-planar-robot-p4/install/ros2_planar_robot/share/ros2_planar_robot/package.sh'
[3.602s] INFO:colcon.colcon_core.shell:Creating package script '/home/umrob/M2/ros-2-planar-robot-p4/install/ros2_planar_robot/share/ros2_planar_robot/package.bash'
[3.602s] INFO:colcon.colcon_core.shell:Creating package script '/home/umrob/M2/ros-2-planar-robot-p4/install/ros2_planar_robot/share/ros2_planar_robot/package.zsh'
[3.603s] Level 1:colcon.colcon_core.environment:create_file_with_runtime_dependencies(/home/umrob/M2/ros-2-planar-robot-p4/install/ros2_planar_robot/share/colcon-core/packages/ros2_planar_robot)
[3.603s] DEBUG:colcon.colcon_parallel_executor.executor.parallel:closing loop
[3.604s] DEBUG:colcon.colcon_parallel_executor.executor.parallel:loop closed
[3.604s] DEBUG:colcon.colcon_parallel_executor.executor.parallel:run_until_complete finished with '0'
[3.604s] DEBUG:colcon.colcon_core.event_reactor:joining thread
[3.636s] INFO:colcon.colcon_core.plugin_system:Skipping extension 'colcon_notification.desktop_notification.terminal_notifier': Not used on non-Darwin systems
[3.636s] INFO:colcon.colcon_core.plugin_system:Skipping extension 'colcon_notification.desktop_notification.win32': Not used on non-Windows systems
[3.636s] INFO:colcon.colcon_notification.desktop_notification:Sending desktop notification using 'notify2'
[3.657s] DEBUG:colcon.colcon_core.event_reactor:joined thread
[3.684s] INFO:colcon.colcon_core.shell:Creating prefix script '/home/umrob/M2/ros-2-planar-robot-p4/install/local_setup.ps1'
[3.686s] INFO:colcon.colcon_core.shell:Creating prefix util module '/home/umrob/M2/ros-2-planar-robot-p4/install/_local_setup_util_ps1.py'
[3.688s] INFO:colcon.colcon_core.shell:Creating prefix chain script '/home/umrob/M2/ros-2-planar-robot-p4/install/setup.ps1'
[3.715s] INFO:colcon.colcon_core.shell:Creating prefix script '/home/umrob/M2/ros-2-planar-robot-p4/install/local_setup.sh'
[3.716s] INFO:colcon.colcon_core.shell:Creating prefix util module '/home/umrob/M2/ros-2-planar-robot-p4/install/_local_setup_util_sh.py'
[3.717s] INFO:colcon.colcon_core.shell:Creating prefix chain script '/home/umrob/M2/ros-2-planar-robot-p4/install/setup.sh'
[3.741s] INFO:colcon.colcon_core.shell:Creating prefix script '/home/umrob/M2/ros-2-planar-robot-p4/install/local_setup.bash'
[3.741s] INFO:colcon.colcon_core.shell:Creating prefix chain script '/home/umrob/M2/ros-2-planar-robot-p4/install/setup.bash'
[3.768s] INFO:colcon.colcon_core.shell:Creating prefix script '/home/umrob/M2/ros-2-planar-robot-p4/install/local_setup.zsh'
[3.768s] INFO:colcon.colcon_core.shell:Creating prefix chain script '/home/umrob/M2/ros-2-planar-robot-p4/install/setup.zsh'
