Invoking command in '/home/umrob/M2/ros-2-planar-robot-p4/build/ros2_planar_robot': CMAKE_PREFIX_PATH=/opt/ros/humble CONDA_PROMPT_MODIFIER=(base) /usr/bin/cmake --build /home/umrob/M2/ros-2-planar-robot-p4/build/ros2_planar_robot -- -j8 -l8
Invoked command in '/home/umrob/M2/ros-2-planar-robot-p4/build/ros2_planar_robot' returned '0': CMAKE_PREFIX_PATH=/opt/ros/humble CONDA_PROMPT_MODIFIER=(base) /usr/bin/cmake --build /home/umrob/M2/ros-2-planar-robot-p4/build/ros2_planar_robot -- -j8 -l8
Invoking command in '/home/umrob/M2/ros-2-planar-robot-p4/build/ros2_planar_robot': CMAKE_PREFIX_PATH=/opt/ros/humble CONDA_PROMPT_MODIFIER=(base) /usr/bin/cmake --install /home/umrob/M2/ros-2-planar-robot-p4/build/ros2_planar_robot
Invoked command in '/home/umrob/M2/ros-2-planar-robot-p4/build/ros2_planar_robot' returned '0': CMAKE_PREFIX_PATH=/opt/ros/humble CONDA_PROMPT_MODIFIER=(base) /usr/bin/cmake --install /home/umrob/M2/ros-2-planar-robot-p4/build/ros2_planar_robot
