[  1%] Built target ros2_planar_robot__cpp
[ 10%] Built target ros2_planar_robot__rosidl_generator_c
[ 14%] Built target trajectory_generation_lib
[ 14%] Built target kinematic_model_lib
[ 14%] Built target ament_cmake_python_copy_ros2_planar_robot
[ 23%] Built target ros2_planar_robot__rosidl_typesupport_introspection_c
[ 32%] Built target ros2_planar_robot__rosidl_typesupport_fastrtps_cpp
[ 56%] Built target ros2_planar_robot__rosidl_typesupport_cpp
[ 56%] Built target ros2_planar_robot__rosidl_typesupport_introspection_cpp
[ 59%] Built target ros2_planar_robot__rosidl_typesupport_fastrtps_c
[ 68%] Built target ros2_planar_robot__rosidl_typesupport_c
[ 70%] Built target control_lib
[35m[1mConsolidate compiler generated dependencies of target joint_pub[0m
[ 70%] Built target ros2_planar_robot
[ 72%] Built target high_lev_mng
[ 74%] Built target kinematic_modeller
[ 78%] Built target simulator
[ 78%] Built target disturbance_generator
[ 80%] Built target trajectory_generator
[ 81%] [32mBuilding CXX object CMakeFiles/joint_pub.dir/src/joint_pub.cpp.o[0m
[ 82%] Built target ros2_planar_robot__py
[ 84%] Built target controller
[ 92%] Built target ros2_planar_robot__rosidl_generator_py
[ 94%] Built target ros2_planar_robot__rosidl_typesupport_c__pyext
[ 96%] Built target ros2_planar_robot__rosidl_typesupport_introspection_c__pyext
[ 98%] Built target ros2_planar_robot__rosidl_typesupport_fastrtps_c__pyext
running egg_info
writing ros2_planar_robot.egg-info/PKG-INFO
writing dependency_links to ros2_planar_robot.egg-info/dependency_links.txt
writing top-level names to ros2_planar_robot.egg-info/top_level.txt
reading manifest file 'ros2_planar_robot.egg-info/SOURCES.txt'
writing manifest file 'ros2_planar_robot.egg-info/SOURCES.txt'
[ 98%] Built target ament_cmake_python_build_ros2_planar_robot_egg
[100%] [32m[1mLinking CXX executable joint_pub[0m
[100%] Built target joint_pub
-- Install configuration: ""
-- Up-to-date: /home/umrob/M2/ros-2-planar-robot-p4/install/ros2_planar_robot/share/ament_index/resource_index/rosidl_interfaces/ros2_planar_robot
-- Up-to-date: /home/umrob/M2/ros-2-planar-robot-p4/install/ros2_planar_robot/include/ros2_planar_robot/ros2_planar_robot
-- Up-to-date: /home/umrob/M2/ros-2-planar-robot-p4/install/ros2_planar_robot/include/ros2_planar_robot/ros2_planar_robot/msg
-- Up-to-date: /home/umrob/M2/ros-2-planar-robot-p4/install/ros2_planar_robot/include/ros2_planar_robot/ros2_planar_robot/msg/detail
-- Up-to-date: /home/umrob/M2/ros-2-planar-robot-p4/install/ros2_planar_robot/include/ros2_planar_robot/ros2_planar_robot/msg/detail/velocity__type_support.h
-- Up-to-date: /home/umrob/M2/ros-2-planar-robot-p4/install/ros2_planar_robot/include/ros2_planar_robot/ros2_planar_robot/msg/detail/ref_pose__functions.c
-- Up-to-date: /home/umrob/M2/ros-2-planar-robot-p4/install/ros2_planar_robot/include/ros2_planar_robot/ros2_planar_robot/msg/detail/cartesian_state__functions.h
-- Up-to-date: /home/umrob/M2/ros-2-planar-robot-p4/install/ros2_planar_robot/include/ros2_planar_robot/ros2_planar_robot/msg/detail/pose__functions.c
-- Up-to-date: /home/umrob/M2/ros-2-planar-robot-p4/install/ros2_planar_robot/include/ros2_planar_robot/ros2_planar_robot/msg/detail/joint_velocity__type_support.h
-- Up-to-date: /home/umrob/M2/ros-2-planar-robot-p4/install/ros2_planar_robot/include/ros2_planar_robot/ros2_planar_robot/msg/detail/pose__type_support.h
-- Up-to-date: /home/umrob/M2/ros-2-planar-robot-p4/install/ros2_planar_robot/include/ros2_planar_robot/ros2_planar_robot/msg/detail/joint_position__type_support.h
-- Up-to-date: /home/umrob/M2/ros-2-planar-robot-p4/install/ros2_planar_robot/include/ros2_planar_robot/ros2_planar_robot/msg/detail/velocity__functions.c
-- Up-to-date: /home/umrob/M2/ros-2-planar-robot-p4/install/ros2_planar_robot/include/ros2_planar_robot/ros2_planar_robot/msg/detail/kin_data__struct.h
-- Up-to-date: /home/umrob/M2/ros-2-planar-robot-p4/install/ros2_planar_robot/include/ros2_planar_robot/ros2_planar_robot/msg/detail/kin_data__functions.h
-- Up-to-date: /home/umrob/M2/ros-2-planar-robot-p4/install/ros2_planar_robot/include/ros2_planar_robot/ros2_planar_robot/msg/detail/joint_velocity__functions.c
-- Up-to-date: /home/umrob/M2/ros-2-planar-robot-p4/install/ros2_planar_robot/include/ros2_planar_robot/ros2_planar_robot/msg/detail/kin_data__functions.c
-- Up-to-date: /home/umrob/M2/ros-2-planar-robot-p4/install/ros2_planar_robot/include/ros2_planar_robot/ros2_planar_robot/msg/detail/ref_pose__type_support.h
-- Up-to-date: /home/umrob/M2/ros-2-planar-robot-p4/install/ros2_planar_robot/include/ros2_planar_robot/ros2_planar_robot/msg/detail/velocity__struct.h
-- Up-to-date: /home/umrob/M2/ros-2-planar-robot-p4/install/ros2_planar_robot/include/ros2_planar_robot/ros2_planar_robot/msg/detail/ref_pose__functions.h
-- Up-to-date: /home/umrob/M2/ros-2-planar-robot-p4/install/ros2_planar_robot/include/ros2_planar_robot/ros2_planar_robot/msg/detail/velocity__functions.h
-- Up-to-date: /home/umrob/M2/ros-2-planar-robot-p4/install/ros2_planar_robot/include/ros2_planar_robot/ros2_planar_robot/msg/detail/cartesian_state__struct.h
-- Up-to-date: /home/umrob/M2/ros-2-planar-robot-p4/install/ros2_planar_robot/include/ros2_planar_robot/ros2_planar_robot/msg/detail/ref_pose__struct.h
-- Up-to-date: /home/umrob/M2/ros-2-planar-robot-p4/install/ros2_planar_robot/include/ros2_planar_robot/ros2_planar_robot/msg/detail/joint_position__struct.h
-- Up-to-date: /home/umrob/M2/ros-2-planar-robot-p4/install/ros2_planar_robot/include/ros2_planar_robot/ros2_planar_robot/msg/detail/cartesian_state__functions.c
-- Up-to-date: /home/umrob/M2/ros-2-planar-robot-p4/install/ros2_planar_robot/include/ros2_planar_robot/ros2_planar_robot/msg/detail/joint_velocity__struct.h
-- Up-to-date: /home/umrob/M2/ros-2-planar-robot-p4/install/ros2_planar_robot/include/ros2_planar_robot/ros2_planar_robot/msg/detail/pose__struct.h
-- Up-to-date: /home/umrob/M2/ros-2-planar-robot-p4/install/ros2_planar_robot/include/ros2_planar_robot/ros2_planar_robot/msg/detail/joint_position__functions.c
-- Up-to-date: /home/umrob/M2/ros-2-planar-robot-p4/install/ros2_planar_robot/include/ros2_planar_robot/ros2_planar_robot/msg/detail/cartesian_state__type_support.h
-- Up-to-date: /home/umrob/M2/ros-2-planar-robot-p4/install/ros2_planar_robot/include/ros2_planar_robot/ros2_planar_robot/msg/detail/pose__functions.h
-- Up-to-date: /home/umrob/M2/ros-2-planar-robot-p4/install/ros2_planar_robot/include/ros2_planar_robot/ros2_planar_robot/msg/detail/joint_position__functions.h
-- Up-to-date: /home/umrob/M2/ros-2-planar-robot-p4/install/ros2_planar_robot/include/ros2_planar_robot/ros2_planar_robot/msg/detail/joint_velocity__functions.h
-- Up-to-date: /home/umrob/M2/ros-2-planar-robot-p4/install/ros2_planar_robot/include/ros2_planar_robot/ros2_planar_robot/msg/detail/kin_data__type_support.h
-- Up-to-date: /home/umrob/M2/ros-2-planar-robot-p4/install/ros2_planar_robot/include/ros2_planar_robot/ros2_planar_robot/msg/velocity.h
-- Up-to-date: /home/umrob/M2/ros-2-planar-robot-p4/install/ros2_planar_robot/include/ros2_planar_robot/ros2_planar_robot/msg/pose.h
-- Up-to-date: /home/umrob/M2/ros-2-planar-robot-p4/install/ros2_planar_robot/include/ros2_planar_robot/ros2_planar_robot/msg/joint_velocity.h
-- Up-to-date: /home/umrob/M2/ros-2-planar-robot-p4/install/ros2_planar_robot/include/ros2_planar_robot/ros2_planar_robot/msg/ref_pose.h
-- Up-to-date: /home/umrob/M2/ros-2-planar-robot-p4/install/ros2_planar_robot/include/ros2_planar_robot/ros2_planar_robot/msg/cartesian_state.h
-- Up-to-date: /home/umrob/M2/ros-2-planar-robot-p4/install/ros2_planar_robot/include/ros2_planar_robot/ros2_planar_robot/msg/rosidl_generator_c__visibility_control.h
-- Up-to-date: /home/umrob/M2/ros-2-planar-robot-p4/install/ros2_planar_robot/include/ros2_planar_robot/ros2_planar_robot/msg/kin_data.h
-- Up-to-date: /home/umrob/M2/ros-2-planar-robot-p4/install/ros2_planar_robot/include/ros2_planar_robot/ros2_planar_robot/msg/joint_position.h
-- Up-to-date: /home/umrob/M2/ros-2-planar-robot-p4/install/ros2_planar_robot/share/ros2_planar_robot/environment/library_path.sh
-- Installing: /home/umrob/M2/ros-2-planar-robot-p4/install/ros2_planar_robot/share/ros2_planar_robot/environment/library_path.dsv
-- Up-to-date: /home/umrob/M2/ros-2-planar-robot-p4/install/ros2_planar_robot/lib/libros2_planar_robot__rosidl_generator_c.so
-- Up-to-date: /home/umrob/M2/ros-2-planar-robot-p4/install/ros2_planar_robot/include/ros2_planar_robot/ros2_planar_robot
-- Up-to-date: /home/umrob/M2/ros-2-planar-robot-p4/install/ros2_planar_robot/include/ros2_planar_robot/ros2_planar_robot/msg
-- Up-to-date: /home/umrob/M2/ros-2-planar-robot-p4/install/ros2_planar_robot/include/ros2_planar_robot/ros2_planar_robot/msg/detail
-- Up-to-date: /home/umrob/M2/ros-2-planar-robot-p4/install/ros2_planar_robot/include/ros2_planar_robot/ros2_planar_robot/msg/detail/pose__rosidl_typesupport_fastrtps_c.h
-- Up-to-date: /home/umrob/M2/ros-2-planar-robot-p4/install/ros2_planar_robot/include/ros2_planar_robot/ros2_planar_robot/msg/detail/ref_pose__rosidl_typesupport_fastrtps_c.h
-- Up-to-date: /home/umrob/M2/ros-2-planar-robot-p4/install/ros2_planar_robot/include/ros2_planar_robot/ros2_planar_robot/msg/detail/joint_velocity__rosidl_typesupport_fastrtps_c.h
-- Up-to-date: /home/umrob/M2/ros-2-planar-robot-p4/install/ros2_planar_robot/include/ros2_planar_robot/ros2_planar_robot/msg/detail/cartesian_state__rosidl_typesupport_fastrtps_c.h
-- Up-to-date: /home/umrob/M2/ros-2-planar-robot-p4/install/ros2_planar_robot/include/ros2_planar_robot/ros2_planar_robot/msg/detail/velocity__rosidl_typesupport_fastrtps_c.h
-- Up-to-date: /home/umrob/M2/ros-2-planar-robot-p4/install/ros2_planar_robot/include/ros2_planar_robot/ros2_planar_robot/msg/detail/kin_data__rosidl_typesupport_fastrtps_c.h
-- Up-to-date: /home/umrob/M2/ros-2-planar-robot-p4/install/ros2_planar_robot/include/ros2_planar_robot/ros2_planar_robot/msg/detail/joint_position__rosidl_typesupport_fastrtps_c.h
-- Up-to-date: /home/umrob/M2/ros-2-planar-robot-p4/install/ros2_planar_robot/include/ros2_planar_robot/ros2_planar_robot/msg/rosidl_typesupport_fastrtps_c__visibility_control.h
-- Up-to-date: /home/umrob/M2/ros-2-planar-robot-p4/install/ros2_planar_robot/lib/libros2_planar_robot__rosidl_typesupport_fastrtps_c.so
-- Up-to-date: /home/umrob/M2/ros-2-planar-robot-p4/install/ros2_planar_robot/include/ros2_planar_robot/ros2_planar_robot
-- Up-to-date: /home/umrob/M2/ros-2-planar-robot-p4/install/ros2_planar_robot/include/ros2_planar_robot/ros2_planar_robot/msg
-- Up-to-date: /home/umrob/M2/ros-2-planar-robot-p4/install/ros2_planar_robot/include/ros2_planar_robot/ros2_planar_robot/msg/detail
-- Up-to-date: /home/umrob/M2/ros-2-planar-robot-p4/install/ros2_planar_robot/include/ros2_planar_robot/ros2_planar_robot/msg/detail/joint_velocity__struct.hpp
-- Up-to-date: /home/umrob/M2/ros-2-planar-robot-p4/install/ros2_planar_robot/include/ros2_planar_robot/ros2_planar_robot/msg/detail/cartesian_state__struct.hpp
-- Up-to-date: /home/umrob/M2/ros-2-planar-robot-p4/install/ros2_planar_robot/include/ros2_planar_robot/ros2_planar_robot/msg/detail/velocity__traits.hpp
-- Up-to-date: /home/umrob/M2/ros-2-planar-robot-p4/install/ros2_planar_robot/include/ros2_planar_robot/ros2_planar_robot/msg/detail/kin_data__traits.hpp
-- Up-to-date: /home/umrob/M2/ros-2-planar-robot-p4/install/ros2_planar_robot/include/ros2_planar_robot/ros2_planar_robot/msg/detail/kin_data__struct.hpp
-- Up-to-date: /home/umrob/M2/ros-2-planar-robot-p4/install/ros2_planar_robot/include/ros2_planar_robot/ros2_planar_robot/msg/detail/joint_position__struct.hpp
-- Up-to-date: /home/umrob/M2/ros-2-planar-robot-p4/install/ros2_planar_robot/include/ros2_planar_robot/ros2_planar_robot/msg/detail/ref_pose__traits.hpp
-- Up-to-date: /home/umrob/M2/ros-2-planar-robot-p4/install/ros2_planar_robot/include/ros2_planar_robot/ros2_planar_robot/msg/detail/joint_position__traits.hpp
-- Up-to-date: /home/umrob/M2/ros-2-planar-robot-p4/install/ros2_planar_robot/include/ros2_planar_robot/ros2_planar_robot/msg/detail/kin_data__builder.hpp
-- Up-to-date: /home/umrob/M2/ros-2-planar-robot-p4/install/ros2_planar_robot/include/ros2_planar_robot/ros2_planar_robot/msg/detail/ref_pose__builder.hpp
-- Up-to-date: /home/umrob/M2/ros-2-planar-robot-p4/install/ros2_planar_robot/include/ros2_planar_robot/ros2_planar_robot/msg/detail/joint_velocity__builder.hpp
-- Up-to-date: /home/umrob/M2/ros-2-planar-robot-p4/install/ros2_planar_robot/include/ros2_planar_robot/ros2_planar_robot/msg/detail/pose__traits.hpp
-- Up-to-date: /home/umrob/M2/ros-2-planar-robot-p4/install/ros2_planar_robot/include/ros2_planar_robot/ros2_planar_robot/msg/detail/cartesian_state__traits.hpp
-- Up-to-date: /home/umrob/M2/ros-2-planar-robot-p4/install/ros2_planar_robot/include/ros2_planar_robot/ros2_planar_robot/msg/detail/ref_pose__struct.hpp
-- Up-to-date: /home/umrob/M2/ros-2-planar-robot-p4/install/ros2_planar_robot/include/ros2_planar_robot/ros2_planar_robot/msg/detail/pose__builder.hpp
-- Up-to-date: /home/umrob/M2/ros-2-planar-robot-p4/install/ros2_planar_robot/include/ros2_planar_robot/ros2_planar_robot/msg/detail/pose__struct.hpp
-- Up-to-date: /home/umrob/M2/ros-2-planar-robot-p4/install/ros2_planar_robot/include/ros2_planar_robot/ros2_planar_robot/msg/detail/joint_position__builder.hpp
-- Up-to-date: /home/umrob/M2/ros-2-planar-robot-p4/install/ros2_planar_robot/include/ros2_planar_robot/ros2_planar_robot/msg/detail/cartesian_state__builder.hpp
-- Up-to-date: /home/umrob/M2/ros-2-planar-robot-p4/install/ros2_planar_robot/include/ros2_planar_robot/ros2_planar_robot/msg/detail/velocity__builder.hpp
-- Up-to-date: /home/umrob/M2/ros-2-planar-robot-p4/install/ros2_planar_robot/include/ros2_planar_robot/ros2_planar_robot/msg/detail/joint_velocity__traits.hpp
-- Up-to-date: /home/umrob/M2/ros-2-planar-robot-p4/install/ros2_planar_robot/include/ros2_planar_robot/ros2_planar_robot/msg/detail/velocity__struct.hpp
-- Up-to-date: /home/umrob/M2/ros-2-planar-robot-p4/install/ros2_planar_robot/include/ros2_planar_robot/ros2_planar_robot/msg/ref_pose.hpp
-- Up-to-date: /home/umrob/M2/ros-2-planar-robot-p4/install/ros2_planar_robot/include/ros2_planar_robot/ros2_planar_robot/msg/joint_position.hpp
-- Up-to-date: /home/umrob/M2/ros-2-planar-robot-p4/install/ros2_planar_robot/include/ros2_planar_robot/ros2_planar_robot/msg/cartesian_state.hpp
-- Up-to-date: /home/umrob/M2/ros-2-planar-robot-p4/install/ros2_planar_robot/include/ros2_planar_robot/ros2_planar_robot/msg/kin_data.hpp
-- Up-to-date: /home/umrob/M2/ros-2-planar-robot-p4/install/ros2_planar_robot/include/ros2_planar_robot/ros2_planar_robot/msg/pose.hpp
-- Up-to-date: /home/umrob/M2/ros-2-planar-robot-p4/install/ros2_planar_robot/include/ros2_planar_robot/ros2_planar_robot/msg/joint_velocity.hpp
-- Up-to-date: /home/umrob/M2/ros-2-planar-robot-p4/install/ros2_planar_robot/include/ros2_planar_robot/ros2_planar_robot/msg/velocity.hpp
-- Up-to-date: /home/umrob/M2/ros-2-planar-robot-p4/install/ros2_planar_robot/include/ros2_planar_robot/ros2_planar_robot
-- Up-to-date: /home/umrob/M2/ros-2-planar-robot-p4/install/ros2_planar_robot/include/ros2_planar_robot/ros2_planar_robot/msg
-- Up-to-date: /home/umrob/M2/ros-2-planar-robot-p4/install/ros2_planar_robot/include/ros2_planar_robot/ros2_planar_robot/msg/detail
-- Up-to-date: /home/umrob/M2/ros-2-planar-robot-p4/install/ros2_planar_robot/include/ros2_planar_robot/ros2_planar_robot/msg/detail/velocity__rosidl_typesupport_fastrtps_cpp.hpp
-- Up-to-date: /home/umrob/M2/ros-2-planar-robot-p4/install/ros2_planar_robot/include/ros2_planar_robot/ros2_planar_robot/msg/detail/joint_velocity__rosidl_typesupport_fastrtps_cpp.hpp
-- Up-to-date: /home/umrob/M2/ros-2-planar-robot-p4/install/ros2_planar_robot/include/ros2_planar_robot/ros2_planar_robot/msg/detail/pose__rosidl_typesupport_fastrtps_cpp.hpp
-- Up-to-date: /home/umrob/M2/ros-2-planar-robot-p4/install/ros2_planar_robot/include/ros2_planar_robot/ros2_planar_robot/msg/detail/dds_fastrtps
-- Up-to-date: /home/umrob/M2/ros-2-planar-robot-p4/install/ros2_planar_robot/include/ros2_planar_robot/ros2_planar_robot/msg/detail/cartesian_state__rosidl_typesupport_fastrtps_cpp.hpp
-- Up-to-date: /home/umrob/M2/ros-2-planar-robot-p4/install/ros2_planar_robot/include/ros2_planar_robot/ros2_planar_robot/msg/detail/ref_pose__rosidl_typesupport_fastrtps_cpp.hpp
-- Up-to-date: /home/umrob/M2/ros-2-planar-robot-p4/install/ros2_planar_robot/include/ros2_planar_robot/ros2_planar_robot/msg/detail/joint_position__rosidl_typesupport_fastrtps_cpp.hpp
-- Up-to-date: /home/umrob/M2/ros-2-planar-robot-p4/install/ros2_planar_robot/include/ros2_planar_robot/ros2_planar_robot/msg/detail/kin_data__rosidl_typesupport_fastrtps_cpp.hpp
-- Up-to-date: /home/umrob/M2/ros-2-planar-robot-p4/install/ros2_planar_robot/include/ros2_planar_robot/ros2_planar_robot/msg/rosidl_typesupport_fastrtps_cpp__visibility_control.h
-- Up-to-date: /home/umrob/M2/ros-2-planar-robot-p4/install/ros2_planar_robot/lib/libros2_planar_robot__rosidl_typesupport_fastrtps_cpp.so
-- Up-to-date: /home/umrob/M2/ros-2-planar-robot-p4/install/ros2_planar_robot/include/ros2_planar_robot/ros2_planar_robot
-- Up-to-date: /home/umrob/M2/ros-2-planar-robot-p4/install/ros2_planar_robot/include/ros2_planar_robot/ros2_planar_robot/msg
-- Up-to-date: /home/umrob/M2/ros-2-planar-robot-p4/install/ros2_planar_robot/include/ros2_planar_robot/ros2_planar_robot/msg/detail
-- Up-to-date: /home/umrob/M2/ros-2-planar-robot-p4/install/ros2_planar_robot/include/ros2_planar_robot/ros2_planar_robot/msg/detail/pose__rosidl_typesupport_introspection_c.h
-- Up-to-date: /home/umrob/M2/ros-2-planar-robot-p4/install/ros2_planar_robot/include/ros2_planar_robot/ros2_planar_robot/msg/detail/kin_data__rosidl_typesupport_introspection_c.h
-- Up-to-date: /home/umrob/M2/ros-2-planar-robot-p4/install/ros2_planar_robot/include/ros2_planar_robot/ros2_planar_robot/msg/detail/kin_data__type_support.c
-- Up-to-date: /home/umrob/M2/ros-2-planar-robot-p4/install/ros2_planar_robot/include/ros2_planar_robot/ros2_planar_robot/msg/detail/ref_pose__type_support.c
-- Up-to-date: /home/umrob/M2/ros-2-planar-robot-p4/install/ros2_planar_robot/include/ros2_planar_robot/ros2_planar_robot/msg/detail/pose__type_support.c
-- Up-to-date: /home/umrob/M2/ros-2-planar-robot-p4/install/ros2_planar_robot/include/ros2_planar_robot/ros2_planar_robot/msg/detail/velocity__type_support.c
-- Up-to-date: /home/umrob/M2/ros-2-planar-robot-p4/install/ros2_planar_robot/include/ros2_planar_robot/ros2_planar_robot/msg/detail/joint_position__rosidl_typesupport_introspection_c.h
-- Up-to-date: /home/umrob/M2/ros-2-planar-robot-p4/install/ros2_planar_robot/include/ros2_planar_robot/ros2_planar_robot/msg/detail/velocity__rosidl_typesupport_introspection_c.h
-- Up-to-date: /home/umrob/M2/ros-2-planar-robot-p4/install/ros2_planar_robot/include/ros2_planar_robot/ros2_planar_robot/msg/detail/ref_pose__rosidl_typesupport_introspection_c.h
-- Up-to-date: /home/umrob/M2/ros-2-planar-robot-p4/install/ros2_planar_robot/include/ros2_planar_robot/ros2_planar_robot/msg/detail/joint_position__type_support.c
-- Up-to-date: /home/umrob/M2/ros-2-planar-robot-p4/install/ros2_planar_robot/include/ros2_planar_robot/ros2_planar_robot/msg/detail/joint_velocity__rosidl_typesupport_introspection_c.h
-- Up-to-date: /home/umrob/M2/ros-2-planar-robot-p4/install/ros2_planar_robot/include/ros2_planar_robot/ros2_planar_robot/msg/detail/joint_velocity__type_support.c
-- Up-to-date: /home/umrob/M2/ros-2-planar-robot-p4/install/ros2_planar_robot/include/ros2_planar_robot/ros2_planar_robot/msg/detail/cartesian_state__rosidl_typesupport_introspection_c.h
-- Up-to-date: /home/umrob/M2/ros-2-planar-robot-p4/install/ros2_planar_robot/include/ros2_planar_robot/ros2_planar_robot/msg/detail/cartesian_state__type_support.c
-- Up-to-date: /home/umrob/M2/ros-2-planar-robot-p4/install/ros2_planar_robot/include/ros2_planar_robot/ros2_planar_robot/msg/rosidl_typesupport_introspection_c__visibility_control.h
-- Up-to-date: /home/umrob/M2/ros-2-planar-robot-p4/install/ros2_planar_robot/lib/libros2_planar_robot__rosidl_typesupport_introspection_c.so
-- Up-to-date: /home/umrob/M2/ros-2-planar-robot-p4/install/ros2_planar_robot/lib/libros2_planar_robot__rosidl_typesupport_c.so
-- Up-to-date: /home/umrob/M2/ros-2-planar-robot-p4/install/ros2_planar_robot/include/ros2_planar_robot/ros2_planar_robot
-- Up-to-date: /home/umrob/M2/ros-2-planar-robot-p4/install/ros2_planar_robot/include/ros2_planar_robot/ros2_planar_robot/msg
-- Up-to-date: /home/umrob/M2/ros-2-planar-robot-p4/install/ros2_planar_robot/include/ros2_planar_robot/ros2_planar_robot/msg/detail
-- Up-to-date: /home/umrob/M2/ros-2-planar-robot-p4/install/ros2_planar_robot/include/ros2_planar_robot/ros2_planar_robot/msg/detail/kin_data__rosidl_typesupport_introspection_cpp.hpp
-- Up-to-date: /home/umrob/M2/ros-2-planar-robot-p4/install/ros2_planar_robot/include/ros2_planar_robot/ros2_planar_robot/msg/detail/kin_data__type_support.cpp
-- Up-to-date: /home/umrob/M2/ros-2-planar-robot-p4/install/ros2_planar_robot/include/ros2_planar_robot/ros2_planar_robot/msg/detail/joint_velocity__rosidl_typesupport_introspection_cpp.hpp
-- Up-to-date: /home/umrob/M2/ros-2-planar-robot-p4/install/ros2_planar_robot/include/ros2_planar_robot/ros2_planar_robot/msg/detail/ref_pose__rosidl_typesupport_introspection_cpp.hpp
-- Up-to-date: /home/umrob/M2/ros-2-planar-robot-p4/install/ros2_planar_robot/include/ros2_planar_robot/ros2_planar_robot/msg/detail/velocity__rosidl_typesupport_introspection_cpp.hpp
-- Up-to-date: /home/umrob/M2/ros-2-planar-robot-p4/install/ros2_planar_robot/include/ros2_planar_robot/ros2_planar_robot/msg/detail/joint_position__rosidl_typesupport_introspection_cpp.hpp
-- Up-to-date: /home/umrob/M2/ros-2-planar-robot-p4/install/ros2_planar_robot/include/ros2_planar_robot/ros2_planar_robot/msg/detail/cartesian_state__type_support.cpp
-- Up-to-date: /home/umrob/M2/ros-2-planar-robot-p4/install/ros2_planar_robot/include/ros2_planar_robot/ros2_planar_robot/msg/detail/pose__type_support.cpp
-- Up-to-date: /home/umrob/M2/ros-2-planar-robot-p4/install/ros2_planar_robot/include/ros2_planar_robot/ros2_planar_robot/msg/detail/joint_velocity__type_support.cpp
-- Up-to-date: /home/umrob/M2/ros-2-planar-robot-p4/install/ros2_planar_robot/include/ros2_planar_robot/ros2_planar_robot/msg/detail/cartesian_state__rosidl_typesupport_introspection_cpp.hpp
-- Up-to-date: /home/umrob/M2/ros-2-planar-robot-p4/install/ros2_planar_robot/include/ros2_planar_robot/ros2_planar_robot/msg/detail/pose__rosidl_typesupport_introspection_cpp.hpp
-- Up-to-date: /home/umrob/M2/ros-2-planar-robot-p4/install/ros2_planar_robot/include/ros2_planar_robot/ros2_planar_robot/msg/detail/ref_pose__type_support.cpp
-- Up-to-date: /home/umrob/M2/ros-2-planar-robot-p4/install/ros2_planar_robot/include/ros2_planar_robot/ros2_planar_robot/msg/detail/velocity__type_support.cpp
-- Up-to-date: /home/umrob/M2/ros-2-planar-robot-p4/install/ros2_planar_robot/include/ros2_planar_robot/ros2_planar_robot/msg/detail/joint_position__type_support.cpp
-- Up-to-date: /home/umrob/M2/ros-2-planar-robot-p4/install/ros2_planar_robot/lib/libros2_planar_robot__rosidl_typesupport_introspection_cpp.so
-- Up-to-date: /home/umrob/M2/ros-2-planar-robot-p4/install/ros2_planar_robot/lib/libros2_planar_robot__rosidl_typesupport_cpp.so
-- Up-to-date: /home/umrob/M2/ros-2-planar-robot-p4/install/ros2_planar_robot/share/ros2_planar_robot/environment/pythonpath.sh
-- Installing: /home/umrob/M2/ros-2-planar-robot-p4/install/ros2_planar_robot/share/ros2_planar_robot/environment/pythonpath.dsv
-- Up-to-date: /home/umrob/M2/ros-2-planar-robot-p4/install/ros2_planar_robot/local/lib/python3.10/dist-packages/ros2_planar_robot-0.0.0-py3.10.egg-info
-- Installing: /home/umrob/M2/ros-2-planar-robot-p4/install/ros2_planar_robot/local/lib/python3.10/dist-packages/ros2_planar_robot-0.0.0-py3.10.egg-info/dependency_links.txt
-- Installing: /home/umrob/M2/ros-2-planar-robot-p4/install/ros2_planar_robot/local/lib/python3.10/dist-packages/ros2_planar_robot-0.0.0-py3.10.egg-info/SOURCES.txt
-- Installing: /home/umrob/M2/ros-2-planar-robot-p4/install/ros2_planar_robot/local/lib/python3.10/dist-packages/ros2_planar_robot-0.0.0-py3.10.egg-info/PKG-INFO
-- Installing: /home/umrob/M2/ros-2-planar-robot-p4/install/ros2_planar_robot/local/lib/python3.10/dist-packages/ros2_planar_robot-0.0.0-py3.10.egg-info/top_level.txt
-- Up-to-date: /home/umrob/M2/ros-2-planar-robot-p4/install/ros2_planar_robot/local/lib/python3.10/dist-packages/ros2_planar_robot
-- Up-to-date: /home/umrob/M2/ros-2-planar-robot-p4/install/ros2_planar_robot/local/lib/python3.10/dist-packages/ros2_planar_robot/_ros2_planar_robot_s.ep.rosidl_typesupport_c.c
-- Up-to-date: /home/umrob/M2/ros-2-planar-robot-p4/install/ros2_planar_robot/local/lib/python3.10/dist-packages/ros2_planar_robot/ros2_planar_robot_s__rosidl_typesupport_fastrtps_c.cpython-38-x86_64-linux-gnu.so
-- Up-to-date: /home/umrob/M2/ros-2-planar-robot-p4/install/ros2_planar_robot/local/lib/python3.10/dist-packages/ros2_planar_robot/_ros2_planar_robot_s.ep.rosidl_typesupport_introspection_c.c
-- Up-to-date: /home/umrob/M2/ros-2-planar-robot-p4/install/ros2_planar_robot/local/lib/python3.10/dist-packages/ros2_planar_robot/_ros2_planar_robot_s.ep.rosidl_typesupport_fastrtps_c.c
-- Up-to-date: /home/umrob/M2/ros-2-planar-robot-p4/install/ros2_planar_robot/local/lib/python3.10/dist-packages/ros2_planar_robot/ros2_planar_robot_s__rosidl_typesupport_introspection_c.cpython-38-x86_64-linux-gnu.so
-- Up-to-date: /home/umrob/M2/ros-2-planar-robot-p4/install/ros2_planar_robot/local/lib/python3.10/dist-packages/ros2_planar_robot/msg
-- Up-to-date: /home/umrob/M2/ros-2-planar-robot-p4/install/ros2_planar_robot/local/lib/python3.10/dist-packages/ros2_planar_robot/msg/_ref_pose.py
-- Up-to-date: /home/umrob/M2/ros-2-planar-robot-p4/install/ros2_planar_robot/local/lib/python3.10/dist-packages/ros2_planar_robot/msg/_kin_data.py
-- Up-to-date: /home/umrob/M2/ros-2-planar-robot-p4/install/ros2_planar_robot/local/lib/python3.10/dist-packages/ros2_planar_robot/msg/_velocity_s.c
-- Up-to-date: /home/umrob/M2/ros-2-planar-robot-p4/install/ros2_planar_robot/local/lib/python3.10/dist-packages/ros2_planar_robot/msg/_kin_data_s.c
-- Up-to-date: /home/umrob/M2/ros-2-planar-robot-p4/install/ros2_planar_robot/local/lib/python3.10/dist-packages/ros2_planar_robot/msg/_cartesian_state.py
-- Up-to-date: /home/umrob/M2/ros-2-planar-robot-p4/install/ros2_planar_robot/local/lib/python3.10/dist-packages/ros2_planar_robot/msg/_joint_velocity_s.c
-- Up-to-date: /home/umrob/M2/ros-2-planar-robot-p4/install/ros2_planar_robot/local/lib/python3.10/dist-packages/ros2_planar_robot/msg/_joint_position_s.c
-- Up-to-date: /home/umrob/M2/ros-2-planar-robot-p4/install/ros2_planar_robot/local/lib/python3.10/dist-packages/ros2_planar_robot/msg/_pose.py
-- Up-to-date: /home/umrob/M2/ros-2-planar-robot-p4/install/ros2_planar_robot/local/lib/python3.10/dist-packages/ros2_planar_robot/msg/_cartesian_state_s.c
-- Up-to-date: /home/umrob/M2/ros-2-planar-robot-p4/install/ros2_planar_robot/local/lib/python3.10/dist-packages/ros2_planar_robot/msg/_joint_position.py
-- Up-to-date: /home/umrob/M2/ros-2-planar-robot-p4/install/ros2_planar_robot/local/lib/python3.10/dist-packages/ros2_planar_robot/msg/_ref_pose_s.c
-- Up-to-date: /home/umrob/M2/ros-2-planar-robot-p4/install/ros2_planar_robot/local/lib/python3.10/dist-packages/ros2_planar_robot/msg/_pose_s.c
-- Up-to-date: /home/umrob/M2/ros-2-planar-robot-p4/install/ros2_planar_robot/local/lib/python3.10/dist-packages/ros2_planar_robot/msg/__init__.py
-- Up-to-date: /home/umrob/M2/ros-2-planar-robot-p4/install/ros2_planar_robot/local/lib/python3.10/dist-packages/ros2_planar_robot/msg/_joint_velocity.py
-- Up-to-date: /home/umrob/M2/ros-2-planar-robot-p4/install/ros2_planar_robot/local/lib/python3.10/dist-packages/ros2_planar_robot/msg/_velocity.py
-- Up-to-date: /home/umrob/M2/ros-2-planar-robot-p4/install/ros2_planar_robot/local/lib/python3.10/dist-packages/ros2_planar_robot/libros2_planar_robot__rosidl_generator_py.so
-- Installing: /home/umrob/M2/ros-2-planar-robot-p4/install/ros2_planar_robot/local/lib/python3.10/dist-packages/ros2_planar_robot/__init__.py
-- Up-to-date: /home/umrob/M2/ros-2-planar-robot-p4/install/ros2_planar_robot/local/lib/python3.10/dist-packages/ros2_planar_robot/ros2_planar_robot_s__rosidl_typesupport_c.cpython-38-x86_64-linux-gnu.so
Listing '/home/umrob/M2/ros-2-planar-robot-p4/install/ros2_planar_robot/local/lib/python3.10/dist-packages/ros2_planar_robot'...
Compiling '/home/umrob/M2/ros-2-planar-robot-p4/install/ros2_planar_robot/local/lib/python3.10/dist-packages/ros2_planar_robot/__init__.py'...
Listing '/home/umrob/M2/ros-2-planar-robot-p4/install/ros2_planar_robot/local/lib/python3.10/dist-packages/ros2_planar_robot/msg'...
-- Up-to-date: /home/umrob/M2/ros-2-planar-robot-p4/install/ros2_planar_robot/local/lib/python3.10/dist-packages/ros2_planar_robot/ros2_planar_robot_s__rosidl_typesupport_fastrtps_c.cpython-38-x86_64-linux-gnu.so
-- Up-to-date: /home/umrob/M2/ros-2-planar-robot-p4/install/ros2_planar_robot/local/lib/python3.10/dist-packages/ros2_planar_robot/ros2_planar_robot_s__rosidl_typesupport_introspection_c.cpython-38-x86_64-linux-gnu.so
-- Up-to-date: /home/umrob/M2/ros-2-planar-robot-p4/install/ros2_planar_robot/local/lib/python3.10/dist-packages/ros2_planar_robot/ros2_planar_robot_s__rosidl_typesupport_c.cpython-38-x86_64-linux-gnu.so
-- Up-to-date: /home/umrob/M2/ros-2-planar-robot-p4/install/ros2_planar_robot/lib/libros2_planar_robot__rosidl_generator_py.so
-- Up-to-date: /home/umrob/M2/ros-2-planar-robot-p4/install/ros2_planar_robot/share/ros2_planar_robot/msg/RefPose.idl
-- Up-to-date: /home/umrob/M2/ros-2-planar-robot-p4/install/ros2_planar_robot/share/ros2_planar_robot/msg/Pose.idl
-- Up-to-date: /home/umrob/M2/ros-2-planar-robot-p4/install/ros2_planar_robot/share/ros2_planar_robot/msg/JointPosition.idl
-- Up-to-date: /home/umrob/M2/ros-2-planar-robot-p4/install/ros2_planar_robot/share/ros2_planar_robot/msg/JointVelocity.idl
-- Up-to-date: /home/umrob/M2/ros-2-planar-robot-p4/install/ros2_planar_robot/share/ros2_planar_robot/msg/CartesianState.idl
-- Up-to-date: /home/umrob/M2/ros-2-planar-robot-p4/install/ros2_planar_robot/share/ros2_planar_robot/msg/Velocity.idl
-- Up-to-date: /home/umrob/M2/ros-2-planar-robot-p4/install/ros2_planar_robot/share/ros2_planar_robot/msg/KinData.idl
-- Up-to-date: /home/umrob/M2/ros-2-planar-robot-p4/install/ros2_planar_robot/share/ros2_planar_robot/msg/RefPose.msg
-- Up-to-date: /home/umrob/M2/ros-2-planar-robot-p4/install/ros2_planar_robot/share/ros2_planar_robot/msg/Pose.msg
-- Up-to-date: /home/umrob/M2/ros-2-planar-robot-p4/install/ros2_planar_robot/share/ros2_planar_robot/msg/JointPosition.msg
-- Up-to-date: /home/umrob/M2/ros-2-planar-robot-p4/install/ros2_planar_robot/share/ros2_planar_robot/msg/JointVelocity.msg
-- Up-to-date: /home/umrob/M2/ros-2-planar-robot-p4/install/ros2_planar_robot/share/ros2_planar_robot/msg/CartesianState.msg
-- Up-to-date: /home/umrob/M2/ros-2-planar-robot-p4/install/ros2_planar_robot/share/ros2_planar_robot/msg/Velocity.msg
-- Up-to-date: /home/umrob/M2/ros-2-planar-robot-p4/install/ros2_planar_robot/share/ros2_planar_robot/msg/KinData.msg
-- Up-to-date: /home/umrob/M2/ros-2-planar-robot-p4/install/ros2_planar_robot/lib/ros2_planar_robot/trajectory_generator
-- Up-to-date: /home/umrob/M2/ros-2-planar-robot-p4/install/ros2_planar_robot/lib/ros2_planar_robot/high_lev_mng
-- Up-to-date: /home/umrob/M2/ros-2-planar-robot-p4/install/ros2_planar_robot/lib/ros2_planar_robot/controller
-- Up-to-date: /home/umrob/M2/ros-2-planar-robot-p4/install/ros2_planar_robot/lib/ros2_planar_robot/kinematic_modeller
-- Up-to-date: /home/umrob/M2/ros-2-planar-robot-p4/install/ros2_planar_robot/lib/ros2_planar_robot/simulator
-- Up-to-date: /home/umrob/M2/ros-2-planar-robot-p4/install/ros2_planar_robot/lib/ros2_planar_robot/disturbance_generator
-- Installing: /home/umrob/M2/ros-2-planar-robot-p4/install/ros2_planar_robot/lib/ros2_planar_robot/joint_pub
-- Set runtime path of "/home/umrob/M2/ros-2-planar-robot-p4/install/ros2_planar_robot/lib/ros2_planar_robot/joint_pub" to ""
-- Up-to-date: /home/umrob/M2/ros-2-planar-robot-p4/install/ros2_planar_robot/lib/libtrajectory_generation_lib.so
-- Up-to-date: /home/umrob/M2/ros-2-planar-robot-p4/install/ros2_planar_robot/lib/libcontrol_lib.so
-- Up-to-date: /home/umrob/M2/ros-2-planar-robot-p4/install/ros2_planar_robot/lib/libkinematic_model_lib.so
-- Up-to-date: /home/umrob/M2/ros-2-planar-robot-p4/install/ros2_planar_robot/share/ros2_planar_robot//launch
-- Up-to-date: /home/umrob/M2/ros-2-planar-robot-p4/install/ros2_planar_robot/share/ros2_planar_robot//launch/simple_visualizer.py
-- Up-to-date: /home/umrob/M2/ros-2-planar-robot-p4/install/ros2_planar_robot/share/ros2_planar_robot//launch/ros2_planar_robot_launch.py
-- Up-to-date: /home/umrob/M2/ros-2-planar-robot-p4/install/ros2_planar_robot/share/ros2_planar_robot//urdf
-- Up-to-date: /home/umrob/M2/ros-2-planar-robot-p4/install/ros2_planar_robot/share/ros2_planar_robot//urdf/planar_robot.urdf.xml
-- Up-to-date: /home/umrob/M2/ros-2-planar-robot-p4/install/ros2_planar_robot/share/ros2_planar_robot//urdf/planar_robot.rviz
-- Up-to-date: /home/umrob/M2/ros-2-planar-robot-p4/install/ros2_planar_robot/share/ament_index/resource_index/package_run_dependencies/ros2_planar_robot
-- Up-to-date: /home/umrob/M2/ros-2-planar-robot-p4/install/ros2_planar_robot/share/ament_index/resource_index/parent_prefix_path/ros2_planar_robot
-- Up-to-date: /home/umrob/M2/ros-2-planar-robot-p4/install/ros2_planar_robot/share/ros2_planar_robot/environment/ament_prefix_path.sh
-- Installing: /home/umrob/M2/ros-2-planar-robot-p4/install/ros2_planar_robot/share/ros2_planar_robot/environment/ament_prefix_path.dsv
-- Up-to-date: /home/umrob/M2/ros-2-planar-robot-p4/install/ros2_planar_robot/share/ros2_planar_robot/environment/path.sh
-- Installing: /home/umrob/M2/ros-2-planar-robot-p4/install/ros2_planar_robot/share/ros2_planar_robot/environment/path.dsv
-- Up-to-date: /home/umrob/M2/ros-2-planar-robot-p4/install/ros2_planar_robot/share/ros2_planar_robot/local_setup.bash
-- Up-to-date: /home/umrob/M2/ros-2-planar-robot-p4/install/ros2_planar_robot/share/ros2_planar_robot/local_setup.sh
-- Up-to-date: /home/umrob/M2/ros-2-planar-robot-p4/install/ros2_planar_robot/share/ros2_planar_robot/local_setup.zsh
-- Installing: /home/umrob/M2/ros-2-planar-robot-p4/install/ros2_planar_robot/share/ros2_planar_robot/local_setup.dsv
-- Installing: /home/umrob/M2/ros-2-planar-robot-p4/install/ros2_planar_robot/share/ros2_planar_robot/package.dsv
-- Up-to-date: /home/umrob/M2/ros-2-planar-robot-p4/install/ros2_planar_robot/share/ament_index/resource_index/packages/ros2_planar_robot
-- Up-to-date: /home/umrob/M2/ros-2-planar-robot-p4/install/ros2_planar_robot/share/ros2_planar_robot/cmake/export_ros2_planar_robot__rosidl_generator_cExport.cmake
-- Up-to-date: /home/umrob/M2/ros-2-planar-robot-p4/install/ros2_planar_robot/share/ros2_planar_robot/cmake/export_ros2_planar_robot__rosidl_generator_cExport-noconfig.cmake
-- Up-to-date: /home/umrob/M2/ros-2-planar-robot-p4/install/ros2_planar_robot/share/ros2_planar_robot/cmake/export_ros2_planar_robot__rosidl_typesupport_fastrtps_cExport.cmake
-- Up-to-date: /home/umrob/M2/ros-2-planar-robot-p4/install/ros2_planar_robot/share/ros2_planar_robot/cmake/export_ros2_planar_robot__rosidl_typesupport_fastrtps_cExport-noconfig.cmake
-- Up-to-date: /home/umrob/M2/ros-2-planar-robot-p4/install/ros2_planar_robot/share/ros2_planar_robot/cmake/export_ros2_planar_robot__rosidl_generator_cppExport.cmake
-- Up-to-date: /home/umrob/M2/ros-2-planar-robot-p4/install/ros2_planar_robot/share/ros2_planar_robot/cmake/export_ros2_planar_robot__rosidl_typesupport_fastrtps_cppExport.cmake
-- Up-to-date: /home/umrob/M2/ros-2-planar-robot-p4/install/ros2_planar_robot/share/ros2_planar_robot/cmake/export_ros2_planar_robot__rosidl_typesupport_fastrtps_cppExport-noconfig.cmake
-- Up-to-date: /home/umrob/M2/ros-2-planar-robot-p4/install/ros2_planar_robot/share/ros2_planar_robot/cmake/ros2_planar_robot__rosidl_typesupport_introspection_cExport.cmake
-- Up-to-date: /home/umrob/M2/ros-2-planar-robot-p4/install/ros2_planar_robot/share/ros2_planar_robot/cmake/ros2_planar_robot__rosidl_typesupport_introspection_cExport-noconfig.cmake
-- Up-to-date: /home/umrob/M2/ros-2-planar-robot-p4/install/ros2_planar_robot/share/ros2_planar_robot/cmake/ros2_planar_robot__rosidl_typesupport_cExport.cmake
-- Up-to-date: /home/umrob/M2/ros-2-planar-robot-p4/install/ros2_planar_robot/share/ros2_planar_robot/cmake/ros2_planar_robot__rosidl_typesupport_cExport-noconfig.cmake
-- Up-to-date: /home/umrob/M2/ros-2-planar-robot-p4/install/ros2_planar_robot/share/ros2_planar_robot/cmake/ros2_planar_robot__rosidl_typesupport_introspection_cppExport.cmake
-- Up-to-date: /home/umrob/M2/ros-2-planar-robot-p4/install/ros2_planar_robot/share/ros2_planar_robot/cmake/ros2_planar_robot__rosidl_typesupport_introspection_cppExport-noconfig.cmake
-- Up-to-date: /home/umrob/M2/ros-2-planar-robot-p4/install/ros2_planar_robot/share/ros2_planar_robot/cmake/ros2_planar_robot__rosidl_typesupport_cppExport.cmake
-- Up-to-date: /home/umrob/M2/ros-2-planar-robot-p4/install/ros2_planar_robot/share/ros2_planar_robot/cmake/ros2_planar_robot__rosidl_typesupport_cppExport-noconfig.cmake
-- Up-to-date: /home/umrob/M2/ros-2-planar-robot-p4/install/ros2_planar_robot/share/ros2_planar_robot/cmake/export_ros2_planar_robot__rosidl_generator_pyExport.cmake
-- Up-to-date: /home/umrob/M2/ros-2-planar-robot-p4/install/ros2_planar_robot/share/ros2_planar_robot/cmake/export_ros2_planar_robot__rosidl_generator_pyExport-noconfig.cmake
-- Up-to-date: /home/umrob/M2/ros-2-planar-robot-p4/install/ros2_planar_robot/share/ros2_planar_robot/cmake/rosidl_cmake-extras.cmake
-- Up-to-date: /home/umrob/M2/ros-2-planar-robot-p4/install/ros2_planar_robot/share/ros2_planar_robot/cmake/ament_cmake_export_include_directories-extras.cmake
-- Up-to-date: /home/umrob/M2/ros-2-planar-robot-p4/install/ros2_planar_robot/share/ros2_planar_robot/cmake/ament_cmake_export_libraries-extras.cmake
-- Up-to-date: /home/umrob/M2/ros-2-planar-robot-p4/install/ros2_planar_robot/share/ros2_planar_robot/cmake/ament_cmake_export_targets-extras.cmake
-- Up-to-date: /home/umrob/M2/ros-2-planar-robot-p4/install/ros2_planar_robot/share/ros2_planar_robot/cmake/rosidl_cmake_export_typesupport_targets-extras.cmake
-- Up-to-date: /home/umrob/M2/ros-2-planar-robot-p4/install/ros2_planar_robot/share/ros2_planar_robot/cmake/ament_cmake_export_dependencies-extras.cmake
-- Up-to-date: /home/umrob/M2/ros-2-planar-robot-p4/install/ros2_planar_robot/share/ros2_planar_robot/cmake/rosidl_cmake_export_typesupport_libraries-extras.cmake
-- Up-to-date: /home/umrob/M2/ros-2-planar-robot-p4/install/ros2_planar_robot/share/ros2_planar_robot/cmake/ros2_planar_robotConfig.cmake
-- Up-to-date: /home/umrob/M2/ros-2-planar-robot-p4/install/ros2_planar_robot/share/ros2_planar_robot/cmake/ros2_planar_robotConfig-version.cmake
-- Up-to-date: /home/umrob/M2/ros-2-planar-robot-p4/install/ros2_planar_robot/share/ros2_planar_robot/package.xml
