[1.779s] DEBUG:colcon:Command line arguments: ['/usr/bin/colcon', 'build']
[1.779s] DEBUG:colcon:Parsed command line arguments: Namespace(log_base=None, log_level=None, verb_name='build', build_base='build', install_base='install', merge_install=False, symlink_install=False, test_result_base=None, continue_on_error=False, executor='parallel', parallel_workers=8, event_handlers=None, ignore_user_meta=False, metas=['./colcon.meta'], base_paths=['.'], packages_ignore=None, packages_ignore_regex=None, paths=None, packages_up_to=None, packages_up_to_regex=None, packages_above=None, packages_above_and_dependencies=None, packages_above_depth=None, packages_select_by_dep=None, packages_skip_by_dep=None, packages_skip_up_to=None, packages_select_build_failed=False, packages_skip_build_finished=False, packages_select_test_failures=False, packages_skip_test_passed=False, packages_select=None, packages_skip=None, packages_select_regex=None, packages_skip_regex=None, packages_start=None, packages_end=None, allow_overriding=[], cmake_args=None, cmake_target=None, cmake_target_skip_unavailable=False, cmake_clean_cache=False, cmake_clean_first=False, cmake_force_configure=False, ament_cmake_args=None, catkin_cmake_args=None, catkin_skip_building_tests=False, verb_parser=<colcon_defaults.argument_parser.defaults.DefaultArgumentsDecorator object at 0x7f9de7d7cee0>, verb_extension=<colcon_core.verb.build.BuildVerb object at 0x7f9de7d7e2f0>, main=<bound method BuildVerb.main of <colcon_core.verb.build.BuildVerb object at 0x7f9de7d7e2f0>>)
[1.860s] Level 1:colcon.colcon_core.package_discovery:discover_packages(colcon_meta) check parameters
[1.861s] Level 1:colcon.colcon_core.package_discovery:discover_packages(recursive) check parameters
[1.861s] Level 1:colcon.colcon_core.package_discovery:discover_packages(ignore) check parameters
[1.861s] Level 1:colcon.colcon_core.package_discovery:discover_packages(path) check parameters
[1.861s] Level 1:colcon.colcon_core.package_discovery:discover_packages(colcon_meta) discover
[1.861s] Level 1:colcon.colcon_core.package_discovery:discover_packages(recursive) discover
[1.861s] INFO:colcon.colcon_core.package_discovery:Crawling recursively for packages in '/home/umrob/M2/ros-2-planar-robot-p4'
[1.861s] Level 1:colcon.colcon_core.package_identification:_identify(.) by extensions ['ignore', 'ignore_ament_install']
[1.861s] Level 1:colcon.colcon_core.package_identification:_identify(.) by extension 'ignore'
[1.861s] Level 1:colcon.colcon_core.package_identification:_identify(.) by extension 'ignore_ament_install'
[1.861s] Level 1:colcon.colcon_core.package_identification:_identify(.) by extensions ['colcon_pkg']
[1.861s] Level 1:colcon.colcon_core.package_identification:_identify(.) by extension 'colcon_pkg'
[1.861s] Level 1:colcon.colcon_core.package_identification:_identify(.) by extensions ['colcon_meta']
[1.861s] Level 1:colcon.colcon_core.package_identification:_identify(.) by extension 'colcon_meta'
[1.862s] Level 1:colcon.colcon_core.package_identification:_identify(.) by extensions ['ros']
[1.862s] Level 1:colcon.colcon_core.package_identification:_identify(.) by extension 'ros'
[1.882s] DEBUG:colcon.colcon_core.package_identification:Package '.' with type 'ros.ament_cmake' and name 'ros2_planar_robot'
[1.882s] Level 1:colcon.colcon_core.package_discovery:discover_packages(recursive) using defaults
[1.883s] Level 1:colcon.colcon_core.package_discovery:discover_packages(ignore) discover
[1.883s] Level 1:colcon.colcon_core.package_discovery:discover_packages(ignore) using defaults
[1.883s] Level 1:colcon.colcon_core.package_discovery:discover_packages(path) discover
[1.883s] Level 1:colcon.colcon_core.package_discovery:discover_packages(path) using defaults
[2.043s] Level 1:colcon.colcon_core.package_discovery:discover_packages(prefix_path) check parameters
[2.043s] Level 1:colcon.colcon_core.package_discovery:discover_packages(prefix_path) discover
[2.103s] DEBUG:colcon.colcon_installed_package_information.package_discovery:Found 274 installed packages in /opt/ros/humble
[2.125s] Level 1:colcon.colcon_core.package_discovery:discover_packages(prefix_path) using defaults
[2.281s] Level 5:colcon.colcon_core.verb:set package 'ros2_planar_robot' build argument 'cmake_args' from command line to 'None'
[2.281s] Level 5:colcon.colcon_core.verb:set package 'ros2_planar_robot' build argument 'cmake_target' from command line to 'None'
[2.281s] Level 5:colcon.colcon_core.verb:set package 'ros2_planar_robot' build argument 'cmake_target_skip_unavailable' from command line to 'False'
[2.281s] Level 5:colcon.colcon_core.verb:set package 'ros2_planar_robot' build argument 'cmake_clean_cache' from command line to 'False'
[2.281s] Level 5:colcon.colcon_core.verb:set package 'ros2_planar_robot' build argument 'cmake_clean_first' from command line to 'False'
[2.281s] Level 5:colcon.colcon_core.verb:set package 'ros2_planar_robot' build argument 'cmake_force_configure' from command line to 'False'
[2.281s] Level 5:colcon.colcon_core.verb:set package 'ros2_planar_robot' build argument 'ament_cmake_args' from command line to 'None'
[2.282s] Level 5:colcon.colcon_core.verb:set package 'ros2_planar_robot' build argument 'catkin_cmake_args' from command line to 'None'
[2.282s] Level 5:colcon.colcon_core.verb:set package 'ros2_planar_robot' build argument 'catkin_skip_building_tests' from command line to 'False'
[2.282s] DEBUG:colcon.colcon_core.verb:Building package 'ros2_planar_robot' with the following arguments: {'ament_cmake_args': None, 'build_base': '/home/umrob/M2/ros-2-planar-robot-p4/build/ros2_planar_robot', 'catkin_cmake_args': None, 'catkin_skip_building_tests': False, 'cmake_args': None, 'cmake_clean_cache': False, 'cmake_clean_first': False, 'cmake_force_configure': False, 'cmake_target': None, 'cmake_target_skip_unavailable': False, 'install_base': '/home/umrob/M2/ros-2-planar-robot-p4/install/ros2_planar_robot', 'merge_install': False, 'path': '/home/umrob/M2/ros-2-planar-robot-p4', 'symlink_install': False, 'test_result_base': None}
[2.307s] INFO:colcon.colcon_core.executor:Executing jobs using 'parallel' executor
[2.335s] DEBUG:colcon.colcon_parallel_executor.executor.parallel:run_until_complete
[2.335s] INFO:colcon.colcon_ros.task.ament_cmake.build:Building ROS package in '/home/umrob/M2/ros-2-planar-robot-p4' with build type 'ament_cmake'
[2.336s] INFO:colcon.colcon_cmake.task.cmake.build:Building CMake package in '/home/umrob/M2/ros-2-planar-robot-p4'
[2.366s] INFO:colcon.colcon_core.plugin_system:Skipping extension 'colcon_core.shell.bat': Not used on non-Windows systems
[2.366s] INFO:colcon.colcon_core.shell:Skip shell extension 'powershell' for command environment: Not usable outside of PowerShell
[2.366s] DEBUG:colcon.colcon_core.shell:Skip shell extension 'dsv' for command environment
[2.431s] DEBUG:colcon.colcon_core.event_handler.log_command:Invoking command in '/home/umrob/M2/ros-2-planar-robot-p4/build/ros2_planar_robot': CMAKE_PREFIX_PATH=/opt/ros/humble CONDA_PROMPT_MODIFIER=(base) /usr/bin/cmake --build /home/umrob/M2/ros-2-planar-robot-p4/build/ros2_planar_robot -- -j8 -l8
[3.138s] DEBUG:colcon.colcon_core.event_handler.log_command:Invoked command in '/home/umrob/M2/ros-2-planar-robot-p4/build/ros2_planar_robot' returned '0': CMAKE_PREFIX_PATH=/opt/ros/humble CONDA_PROMPT_MODIFIER=(base) /usr/bin/cmake --build /home/umrob/M2/ros-2-planar-robot-p4/build/ros2_planar_robot -- -j8 -l8
[3.383s] DEBUG:colcon.colcon_core.event_handler.log_command:Invoking command in '/home/umrob/M2/ros-2-planar-robot-p4/build/ros2_planar_robot': CMAKE_PREFIX_PATH=/opt/ros/humble CONDA_PROMPT_MODIFIER=(base) /usr/bin/cmake --install /home/umrob/M2/ros-2-planar-robot-p4/build/ros2_planar_robot
[3.463s] Level 1:colcon.colcon_core.environment:create_environment_scripts_only(ros2_planar_robot)
[3.464s] DEBUG:colcon.colcon_core.event_handler.log_command:Invoked command in '/home/umrob/M2/ros-2-planar-robot-p4/build/ros2_planar_robot' returned '0': CMAKE_PREFIX_PATH=/opt/ros/humble CONDA_PROMPT_MODIFIER=(base) /usr/bin/cmake --install /home/umrob/M2/ros-2-planar-robot-p4/build/ros2_planar_robot
[3.493s] Level 1:colcon.colcon_core.environment:checking '/home/umrob/M2/ros-2-planar-robot-p4/install/ros2_planar_robot' for CMake module files
[3.494s] Level 1:colcon.colcon_core.environment:checking '/home/umrob/M2/ros-2-planar-robot-p4/install/ros2_planar_robot' for CMake config files
[3.494s] Level 1:colcon.colcon_core.shell:create_environment_hook('ros2_planar_robot', 'cmake_prefix_path')
[3.518s] INFO:colcon.colcon_core.shell:Creating environment hook '/home/umrob/M2/ros-2-planar-robot-p4/install/ros2_planar_robot/share/ros2_planar_robot/hook/cmake_prefix_path.ps1'
[3.518s] INFO:colcon.colcon_core.shell:Creating environment descriptor '/home/umrob/M2/ros-2-planar-robot-p4/install/ros2_planar_robot/share/ros2_planar_robot/hook/cmake_prefix_path.dsv'
[3.519s] INFO:colcon.colcon_core.shell:Creating environment hook '/home/umrob/M2/ros-2-planar-robot-p4/install/ros2_planar_robot/share/ros2_planar_robot/hook/cmake_prefix_path.sh'
[3.521s] Level 1:colcon.colcon_core.environment:checking '/home/umrob/M2/ros-2-planar-robot-p4/install/ros2_planar_robot/lib'
[3.521s] Level 1:colcon.colcon_core.shell:create_environment_hook('ros2_planar_robot', 'ld_library_path_lib')
[3.547s] INFO:colcon.colcon_core.shell:Creating environment hook '/home/umrob/M2/ros-2-planar-robot-p4/install/ros2_planar_robot/share/ros2_planar_robot/hook/ld_library_path_lib.ps1'
[3.547s] INFO:colcon.colcon_core.shell:Creating environment descriptor '/home/umrob/M2/ros-2-planar-robot-p4/install/ros2_planar_robot/share/ros2_planar_robot/hook/ld_library_path_lib.dsv'
[3.547s] INFO:colcon.colcon_core.shell:Creating environment hook '/home/umrob/M2/ros-2-planar-robot-p4/install/ros2_planar_robot/share/ros2_planar_robot/hook/ld_library_path_lib.sh'
[3.548s] Level 1:colcon.colcon_core.environment:checking '/home/umrob/M2/ros-2-planar-robot-p4/install/ros2_planar_robot/bin'
[3.548s] Level 1:colcon.colcon_core.environment:checking '/home/umrob/M2/ros-2-planar-robot-p4/install/ros2_planar_robot/lib/pkgconfig/ros2_planar_robot.pc'
[3.548s] Level 1:colcon.colcon_core.environment:checking '/home/umrob/M2/ros-2-planar-robot-p4/install/ros2_planar_robot/lib/python3.10/site-packages'
[3.548s] Level 1:colcon.colcon_core.environment:checking '/home/umrob/M2/ros-2-planar-robot-p4/install/ros2_planar_robot/bin'
[3.576s] INFO:colcon.colcon_core.shell:Creating package script '/home/umrob/M2/ros-2-planar-robot-p4/install/ros2_planar_robot/share/ros2_planar_robot/package.ps1'
[3.577s] INFO:colcon.colcon_core.shell:Creating package descriptor '/home/umrob/M2/ros-2-planar-robot-p4/install/ros2_planar_robot/share/ros2_planar_robot/package.dsv'
[3.578s] INFO:colcon.colcon_core.shell:Creating package script '/home/umrob/M2/ros-2-planar-robot-p4/install/ros2_planar_robot/share/ros2_planar_robot/package.sh'
[3.579s] INFO:colcon.colcon_core.shell:Creating package script '/home/umrob/M2/ros-2-planar-robot-p4/install/ros2_planar_robot/share/ros2_planar_robot/package.bash'
[3.579s] INFO:colcon.colcon_core.shell:Creating package script '/home/umrob/M2/ros-2-planar-robot-p4/install/ros2_planar_robot/share/ros2_planar_robot/package.zsh'
[3.580s] Level 1:colcon.colcon_core.environment:create_file_with_runtime_dependencies(/home/umrob/M2/ros-2-planar-robot-p4/install/ros2_planar_robot/share/colcon-core/packages/ros2_planar_robot)
[3.820s] Level 1:colcon.colcon_core.environment:create_environment_scripts_only(ros2_planar_robot)
[3.848s] Level 1:colcon.colcon_core.environment:checking '/home/umrob/M2/ros-2-planar-robot-p4/install/ros2_planar_robot' for CMake module files
[3.848s] Level 1:colcon.colcon_core.environment:checking '/home/umrob/M2/ros-2-planar-robot-p4/install/ros2_planar_robot' for CMake config files
[3.849s] Level 1:colcon.colcon_core.shell:create_environment_hook('ros2_planar_robot', 'cmake_prefix_path')
[3.874s] INFO:colcon.colcon_core.shell:Creating environment hook '/home/umrob/M2/ros-2-planar-robot-p4/install/ros2_planar_robot/share/ros2_planar_robot/hook/cmake_prefix_path.ps1'
[3.875s] INFO:colcon.colcon_core.shell:Creating environment descriptor '/home/umrob/M2/ros-2-planar-robot-p4/install/ros2_planar_robot/share/ros2_planar_robot/hook/cmake_prefix_path.dsv'
[3.876s] INFO:colcon.colcon_core.shell:Creating environment hook '/home/umrob/M2/ros-2-planar-robot-p4/install/ros2_planar_robot/share/ros2_planar_robot/hook/cmake_prefix_path.sh'
[3.877s] Level 1:colcon.colcon_core.environment:checking '/home/umrob/M2/ros-2-planar-robot-p4/install/ros2_planar_robot/lib'
[3.877s] Level 1:colcon.colcon_core.shell:create_environment_hook('ros2_planar_robot', 'ld_library_path_lib')
[3.899s] INFO:colcon.colcon_core.shell:Creating environment hook '/home/umrob/M2/ros-2-planar-robot-p4/install/ros2_planar_robot/share/ros2_planar_robot/hook/ld_library_path_lib.ps1'
[3.900s] INFO:colcon.colcon_core.shell:Creating environment descriptor '/home/umrob/M2/ros-2-planar-robot-p4/install/ros2_planar_robot/share/ros2_planar_robot/hook/ld_library_path_lib.dsv'
[3.900s] INFO:colcon.colcon_core.shell:Creating environment hook '/home/umrob/M2/ros-2-planar-robot-p4/install/ros2_planar_robot/share/ros2_planar_robot/hook/ld_library_path_lib.sh'
[3.901s] Level 1:colcon.colcon_core.environment:checking '/home/umrob/M2/ros-2-planar-robot-p4/install/ros2_planar_robot/bin'
[3.901s] Level 1:colcon.colcon_core.environment:checking '/home/umrob/M2/ros-2-planar-robot-p4/install/ros2_planar_robot/lib/pkgconfig/ros2_planar_robot.pc'
[3.901s] Level 1:colcon.colcon_core.environment:checking '/home/umrob/M2/ros-2-planar-robot-p4/install/ros2_planar_robot/lib/python3.10/site-packages'
[3.901s] Level 1:colcon.colcon_core.environment:checking '/home/umrob/M2/ros-2-planar-robot-p4/install/ros2_planar_robot/bin'
[3.928s] INFO:colcon.colcon_core.shell:Creating package script '/home/umrob/M2/ros-2-planar-robot-p4/install/ros2_planar_robot/share/ros2_planar_robot/package.ps1'
[3.928s] INFO:colcon.colcon_core.shell:Creating package descriptor '/home/umrob/M2/ros-2-planar-robot-p4/install/ros2_planar_robot/share/ros2_planar_robot/package.dsv'
[3.929s] INFO:colcon.colcon_core.shell:Creating package script '/home/umrob/M2/ros-2-planar-robot-p4/install/ros2_planar_robot/share/ros2_planar_robot/package.sh'
[3.929s] INFO:colcon.colcon_core.shell:Creating package script '/home/umrob/M2/ros-2-planar-robot-p4/install/ros2_planar_robot/share/ros2_planar_robot/package.bash'
[3.930s] INFO:colcon.colcon_core.shell:Creating package script '/home/umrob/M2/ros-2-planar-robot-p4/install/ros2_planar_robot/share/ros2_planar_robot/package.zsh'
[3.930s] Level 1:colcon.colcon_core.environment:create_file_with_runtime_dependencies(/home/umrob/M2/ros-2-planar-robot-p4/install/ros2_planar_robot/share/colcon-core/packages/ros2_planar_robot)
[3.931s] DEBUG:colcon.colcon_parallel_executor.executor.parallel:closing loop
[3.931s] DEBUG:colcon.colcon_parallel_executor.executor.parallel:loop closed
[3.931s] DEBUG:colcon.colcon_parallel_executor.executor.parallel:run_until_complete finished with '0'
[3.931s] DEBUG:colcon.colcon_core.event_reactor:joining thread
[3.966s] INFO:colcon.colcon_core.plugin_system:Skipping extension 'colcon_notification.desktop_notification.terminal_notifier': Not used on non-Darwin systems
[3.966s] INFO:colcon.colcon_core.plugin_system:Skipping extension 'colcon_notification.desktop_notification.win32': Not used on non-Windows systems
[3.966s] INFO:colcon.colcon_notification.desktop_notification:Sending desktop notification using 'notify2'
[3.984s] DEBUG:colcon.colcon_core.event_reactor:joined thread
[4.012s] INFO:colcon.colcon_core.shell:Creating prefix script '/home/umrob/M2/ros-2-planar-robot-p4/install/local_setup.ps1'
[4.013s] INFO:colcon.colcon_core.shell:Creating prefix util module '/home/umrob/M2/ros-2-planar-robot-p4/install/_local_setup_util_ps1.py'
[4.015s] INFO:colcon.colcon_core.shell:Creating prefix chain script '/home/umrob/M2/ros-2-planar-robot-p4/install/setup.ps1'
[4.043s] INFO:colcon.colcon_core.shell:Creating prefix script '/home/umrob/M2/ros-2-planar-robot-p4/install/local_setup.sh'
[4.044s] INFO:colcon.colcon_core.shell:Creating prefix util module '/home/umrob/M2/ros-2-planar-robot-p4/install/_local_setup_util_sh.py'
[4.045s] INFO:colcon.colcon_core.shell:Creating prefix chain script '/home/umrob/M2/ros-2-planar-robot-p4/install/setup.sh'
[4.071s] INFO:colcon.colcon_core.shell:Creating prefix script '/home/umrob/M2/ros-2-planar-robot-p4/install/local_setup.bash'
[4.072s] INFO:colcon.colcon_core.shell:Creating prefix chain script '/home/umrob/M2/ros-2-planar-robot-p4/install/setup.bash'
[4.098s] INFO:colcon.colcon_core.shell:Creating prefix script '/home/umrob/M2/ros-2-planar-robot-p4/install/local_setup.zsh'
[4.099s] INFO:colcon.colcon_core.shell:Creating prefix chain script '/home/umrob/M2/ros-2-planar-robot-p4/install/setup.zsh'
